<?xml version="1.0" standalone="no"?>
<!DOCTYPE svg PUBLIC "-//W3C//DTD SVG 1.1//EN" "http://www.w3.org/Graphics/SVG/1.1/DTD/svg11.dtd">
<svg xmlns="http://www.w3.org/2000/svg">
<metadata>Copyright (C) 2016 by original authors @ fontello.com</metadata>
<defs>
<font id="icons" horiz-adv-x="1000" >
<font-face font-family="icons" font-weight="400" font-stretch="normal" units-per-em="1000" ascent="850" descent="-150" />
<missing-glyph horiz-adv-x="1000" />
<glyph glyph-name="checkbox" unicode="&#xe800;" d="M889 739v-778h-778v778h778m0 111h-778c-61 0-111-50-111-111v-778c0-61 50-111 111-111h778c61 0 111 50 111 111v778c0 61-50 111-111 111l0 0z" horiz-adv-x="1000" />

<glyph glyph-name="checkbox-checked" unicode="&#xe801;" d="M272 456l-78-78 250-250 556 555-78 78-478-478-172 173z m617-495h-778v778h556v111h-556c-61 0-111-50-111-111v-778c0-61 50-111 111-111h778c61 0 111 50 111 111v445h-111v-445z" horiz-adv-x="1000" />

<glyph glyph-name="radio" unicode="&#xe802;" d="M500 850c-275 0-500-225-500-500s225-500 500-500 500 225 500 500-225 500-500 500z m0-900c-220 0-400 180-400 400s180 400 400 400 400-180 400-400-180-400-400-400z" horiz-adv-x="1000" />

<glyph glyph-name="radio-checked" unicode="&#xe803;" d="M500 600c-140 0-250-110-250-250 0-140 110-250 250-250 140 0 250 110 250 250 0 140-110 250-250 250z m0 250c-275 0-500-225-500-500s225-500 500-500 500 225 500 500-225 500-500 500z m0-900c-220 0-400 180-400 400s180 400 400 400 400-180 400-400-180-400-400-400z" horiz-adv-x="1000" />

<glyph glyph-name="info-circled" unicode="&#xe804;" d="M571 82v89q0 8-5 13t-12 5h-54v286q0 8-5 13t-13 5h-178q-8 0-13-5t-5-13v-89q0-8 5-13t13-5h53v-179h-53q-8 0-13-5t-5-13v-89q0-8 5-13t13-5h250q7 0 12 5t5 13z m-71 500v89q0 8-5 13t-13 5h-107q-8 0-13-5t-5-13v-89q0-8 5-13t13-5h107q8 0 13 5t5 13z m357-232q0-117-57-215t-156-156-215-58-216 58-155 156-58 215 58 215 155 156 216 58 215-58 156-156 57-215z" horiz-adv-x="857.1" />

<glyph glyph-name="attention-circled" unicode="&#xe805;" d="M429 779q116 0 215-58t156-156 57-215-57-215-156-156-215-58-216 58-155 156-58 215 58 215 155 156 216 58z m71-696v106q0 8-5 13t-12 5h-107q-8 0-13-5t-6-13v-106q0-8 6-13t13-6h107q7 0 12 6t5 13z m-1 192l10 346q0 7-6 10-5 5-13 5h-123q-8 0-13-5-6-3-6-10l10-346q0-6 5-10t14-4h103q8 0 13 4t6 10z" horiz-adv-x="857.1" />

<glyph glyph-name="attention" unicode="&#xe806;" d="M571 83v106q0 8-5 13t-12 5h-108q-7 0-12-5t-5-13v-106q0-8 5-13t12-6h108q7 0 12 6t5 13z m-1 208l10 257q0 6-5 10-7 6-14 6h-122q-7 0-14-6-5-4-5-12l9-255q0-5 6-9t13-3h103q8 0 13 3t6 9z m-7 522l428-786q20-35-1-70-10-17-26-26t-35-10h-858q-18 0-35 10t-26 26q-21 35-1 70l429 786q9 17 26 27t36 10 36-10 27-27z" horiz-adv-x="1000" />

<glyph glyph-name="cancel-circled" unicode="&#xe807;" d="M641 224q0 14-10 25l-101 101 101 101q10 11 10 25 0 15-10 26l-51 50q-10 11-25 11-15 0-25-11l-101-101-101 101q-11 11-26 11-15 0-25-11l-50-50q-11-11-11-26 0-14 11-25l101-101-101-101q-11-11-11-25 0-15 11-26l50-50q10-11 25-11 15 0 26 11l101 101 101-101q10-11 25-11 15 0 25 11l51 50q10 11 10 26z m216 126q0-117-57-215t-156-156-215-58-216 58-155 156-58 215 58 215 155 156 216 58 215-58 156-156 57-215z" horiz-adv-x="857.1" />

<glyph glyph-name="search" unicode="&#xe808;" d="M643 386q0 103-74 176t-176 74-177-74-73-176 73-177 177-73 176 73 74 177z m286-465q0-29-22-50t-50-21q-30 0-50 21l-191 191q-100-69-223-69-80 0-153 31t-125 84-84 125-31 153 31 152 84 126 125 84 153 31 152-31 126-84 84-126 31-152q0-123-69-223l191-191q21-21 21-51z" horiz-adv-x="928.6" />

<glyph glyph-name="menu" unicode="&#xe809;" d="M857 100v-71q0-15-10-25t-26-11h-785q-15 0-25 11t-11 25v71q0 15 11 25t25 11h785q15 0 26-11t10-25z m0 286v-72q0-14-10-25t-26-10h-785q-15 0-25 10t-11 25v72q0 14 11 25t25 10h785q15 0 26-10t10-25z m0 285v-71q0-15-10-25t-26-11h-785q-15 0-25 11t-11 25v71q0 15 11 26t25 10h785q15 0 26-10t10-26z" horiz-adv-x="857.1" />

<glyph glyph-name="facebook-circled" unicode="&#xe80a;" d="M480 830q200 0 340-140t140-340q0-198-140-339t-340-141-340 141-140 339q0 200 140 340t340 140z m114-330l0 78-72 0q-44 0-74-33t-30-81l0-44-76 0 0-74 76 0 0-222 86 0 0 222 90 0 0 74-90 0 0 52q0 28 18 28l72 0z" horiz-adv-x="960" />

<glyph glyph-name="down-open-big" unicode="&#xe80b;" d="M63 570l370-356 372 356q22 26 48 0 26-22 0-48l-396-392q-22-22-48 0l-396 392q-26 26 0 48 24 24 50 0z" horiz-adv-x="866" />

<glyph glyph-name="left-open-big" unicode="&#xe80c;" d="M452-20q26-26 0-48-26-26-48 0l-392 394q-24 24 0 50l392 394q22 26 48 0 26-22 0-48l-358-372z" horiz-adv-x="465" />

<glyph glyph-name="right-open-big" unicode="&#xe80d;" d="M13-20l358 370-358 372q-26 26 0 48 26 26 48 0l392-394q24-26 0-50l-392-394q-22-26-48 0-26 22 0 48z" horiz-adv-x="465" />

<glyph glyph-name="up-open-big" unicode="&#xe80e;" d="M804 130l-372 358-370-358q-26-22-50 0-24 24 0 50l396 390q26 26 48 0l396-390q24-26 0-50-26-22-48 0z" horiz-adv-x="864" />

<glyph glyph-name="calendar-empty" unicode="&#xe80f;" d="M71-79h786v572h-786v-572z m215 679v161q0 8-5 13t-13 5h-36q-8 0-13-5t-5-13v-161q0-8 5-13t13-5h36q8 0 13 5t5 13z m428 0v161q0 8-5 13t-13 5h-35q-8 0-13-5t-5-13v-161q0-8 5-13t13-5h35q8 0 13 5t5 13z m215 36v-715q0-29-22-50t-50-21h-786q-29 0-50 21t-21 50v715q0 29 21 50t50 21h72v54q0 37 26 63t63 26h36q37 0 63-26t26-63v-54h214v54q0 37 27 63t63 26h35q37 0 63-26t27-63v-54h71q29 0 50-21t22-50z" horiz-adv-x="928.6" />

<glyph glyph-name="megaphone" unicode="&#xe810;" d="M929 493q29 0 50-21t21-51-21-50-50-21v-214q0-29-22-50t-50-22q-233 194-453 212-32-10-51-36t-17-57 22-51q-11-19-13-37t4-32 18-31 27-28 35-28q-17-32-63-46t-94-7-73 31q-4 13-17 49t-18 53-12 50-9 56 2 55 12 62h-68q-36 0-63 26t-26 63v107q0 37 26 63t63 26h268q243 0 500 215 29 0 50-22t22-50v-214z m-72-337v532q-220-168-428-191v-151q210-23 428-190z" horiz-adv-x="1000" />

<glyph glyph-name="calendar" unicode="&#xe811;" d="M71-79h161v161h-161v-161z m197 0h178v161h-178v-161z m-197 197h161v178h-161v-178z m197 0h178v178h-178v-178z m-197 214h161v161h-161v-161z m411-411h179v161h-179v-161z m-214 411h178v161h-178v-161z m428-411h161v161h-161v-161z m-214 197h179v178h-179v-178z m-196 482v161q0 7-6 12t-12 6h-36q-7 0-12-6t-6-12v-161q0-7 6-13t12-5h36q7 0 12 5t6 13z m410-482h161v178h-161v-178z m-214 214h179v161h-179v-161z m214 0h161v161h-161v-161z m18 268v161q0 7-5 12t-13 6h-35q-8 0-13-6t-5-12v-161q0-7 5-13t13-5h35q8 0 13 5t5 13z m215 36v-715q0-29-22-50t-50-21h-786q-29 0-50 21t-21 50v715q0 29 21 50t50 21h72v54q0 37 26 63t63 26h36q37 0 63-26t26-63v-54h214v54q0 37 27 63t63 26h35q37 0 63-26t27-63v-54h71q29 0 50-21t22-50z" horiz-adv-x="928.6" />

<glyph glyph-name="arr-left" unicode="&#xe812;" d="M489 797c-1-2-44-102-95-223-51-121-92-222-93-223 0-2 31-76 94-226l95-225 105 0c99 0 104 0 104 2 0 1-43 102-95 225l-94 223 94 223c52 123 95 224 95 225 0 2-5 2-104 2l-105 0-1-3z" horiz-adv-x="1000" />

<glyph glyph-name="arr-right" unicode="&#xe813;" d="M301 798c1-1 43-102 95-225l94-223-94-223c-52-123-94-224-95-225 0-2 5-2 105-2l104 0 95 225c52 123 94 224 94 225 0 1-42 102-94 226l-95 224-104 0c-100 0-105 0-105-2z" horiz-adv-x="1000" />

<glyph glyph-name="logo" unicode="&#xe814;" d="M484 686l0-105 3 1c2 0 58 0 126 0l122-1 0-123c0-79 0-125-1-132-6-52-29-101-67-138-35-36-82-60-132-67-15-3-39-3-54-2-8 1-15 1-16 1-2 1-3-2-29-97-15-54-27-99-27-100 0-2 3-3 25-7 125-20 240 2 338 67 29 19 50 36 73 59 27 28 47 56 64 91 23 47 36 98 40 158 1 10 1 102 1 258l0 242-233 0-233 0 0-105z m-103 88c-7-2-53-15-54-16 0-1 28-92 30-94 0 0 4 0 8 2 4 1 15 4 25 7 25 8 35 13 39 22 5 10 0 30-9 35-2 1-5 2-6 2-3 0-3 1 0 6 2 4 2 5 2 10-3 21-15 30-35 26z m1-26c3-2 4-10 1-12-1-1-4-2-6-3l-5-2-2 8c-2 4-3 7-3 8 0 0 2 0 5 1 4 1 8 1 10 0z m14-36c2-4 2-8 1-11-1-2-9-5-13-5-1 0-5 11-5 14 0 1 8 4 12 4 2 0 4-1 5-2z m-119 20c-7-5-13-9-13-10 0 0 8-13 18-28 12-18 19-29 19-30 0-5-11-11-15-8 0 0-12 17-35 51l-4 6-14-9c-8-5-15-9-15-10-1 0 37-56 42-61 4-5 12-9 17-10 17-3 52 18 58 35 2 5 1 13-1 19-2 6-40 64-42 64-1 0-8-4-15-9z m151-81c-27-7-41-12-58-20-95-44-162-129-179-230-6-37-5-80 3-117 22-99 93-182 189-220 9-4 12-5 12-3 2 3 32 67 32 68 0 0-4 2-9 4-28 10-58 29-81 51-41 39-65 89-71 144-2 16-1 44 2 60 11 64 48 119 103 155 13 9 36 21 51 26l12 4 0 39c0 31 0 40-1 40-1 0-3-1-5-1z m-267-13l-11-12 5-5c9-9 68-61 69-62 0 0 11 11 24 24l23 24-9 8c-5 5-10 9-11 10-2 1-2 1-5-2-2-2-7-7-11-12l-8-8-3 2c-3 3-40 37-46 42-2 2-4 3-5 3 0 0-6-5-12-12z m-32-41c-8-9-14-19-19-28-5-11-6-21-3-29 4-12 35-33 56-38 7-1 16-1 20 0 11 5 23 21 31 41 2 5 3 9 3 10 0 1-21 13-23 13 0 0-3-5-7-12-7-14-10-17-17-17-5 1-20 9-26 14-3 3-4 4-4 7 0 5 3 11 10 21 4 5 6 8 6 9-2 1-23 13-23 13 0 0-2-2-4-4z m-45-131c-11-3-17-10-22-25-2-8-11-51-10-51 0-1 15-3 32-6 17-4 39-8 49-10 10-1 18-3 19-3 0 1 6 33 6 34 0 0-6 1-13 2-13 3-13 2-11 9 0 2 0 2 13 2 7 0 13 0 13 1 1 1 7 33 7 34 0 0-8-1-18-2l-17-1-4 4c-5 5-11 8-19 11-8 2-20 2-25 1z m20-36c2-2 3-6 1-13 0-3 0-3-15 0l-5 1 1 5c2 7 5 9 11 9 2-1 5-2 7-2z m27-69l-7 0 0-10c1-6 1-15 2-20l0-10-3 0c-2-1-4-1-5-1 0 1-1 6-1 13-1 6-1 13-2 15l0 3-7 0c-4-1-10-1-14-2l-6 0 1-13c0-8 0-14 1-16 0-2 0-2-4-2l-5 0-1 19c-1 11-2 19-2 20 0 0-27-2-28-2 0-1 6-73 6-74 1 0 83 6 94 8 6 0 7 1 7 2 0 3-5 62-6 67l0 4-6 0c-4 0-10-1-14-1z m-2-106c-19-5-35-10-35-10 0 0-1 4-2 8-2 5-3 9-4 9 0 1-26-6-27-7 0-1 22-69 23-70 0 0 5 1 12 3 7 2 13 4 14 4 1 0 1 1 1 1-4 9-6 18-5 19 0 0 15 5 34 11 18 5 33 10 33 10 1 1-9 33-10 33 0 0-16-5-34-11z m10-68c-24-12-45-22-45-22 0-1 14-28 15-30 1-1 13 5 46 22 24 12 45 22 45 23 0 0-16 29-16 30 0 0-21-10-45-23z m31-40c-8-3-17-9-25-16-6-7-8-9-9-14-4-12 0-23 21-49 7-10 14-18 15-19 1-2 4 0 40 27 21 16 39 30 40 30 1 2 0 4-9 15-6 7-11 13-11 13 0 0-4-3-8-6l-8-6-10 10c-14 14-24 18-36 15z m17-35c1 0 3-2 4-4l2-3-10-7-9-7-3 3c-3 4-4 8-2 11 5 6 13 10 18 7z m75-23c-9-2-14-6-25-19-14-17-36-48-36-49 2-2 26-19 27-19 1 1 11 12 21 27 11 14 21 26 23 27 2 1 6 0 10-4 5-4 5-5-17-34-12-15-21-28-21-28 0 0 6-5 14-10 11-9 13-10 15-9 5 5 42 55 44 60 9 17 1 32-23 48-13 9-24 12-32 10z m83-50c-6-3-11-10-18-24-3-8-11-24-16-36-5-11-10-21-10-22 0-1 31-15 32-14 0 0 6 14 14 30 7 15 14 30 15 31 1 2 3 3 5 2 3 0 3 1 9 13 3 8 5 12 4 13 0 1-5 3-11 5-10 3-19 4-24 2z" horiz-adv-x="1000" />

<glyph glyph-name="home" unicode="&#xe815;" d="M888 336q16-16 11-27t-27-11l-84 0 0-310q0-14-1-21t-8-13-23-6l-204 0 0 310-204 0 0-310-194 0q-28 0-35 10t-7 30l0 310-84 0q-22 0-27 11t11 27l400 402q16 16 38 16t38-16z" horiz-adv-x="900" />

<glyph glyph-name="cancel" unicode="&#xe816;" d="M724 112q0-22-15-38l-76-76q-16-15-38-15t-38 15l-164 165-164-165q-16-15-38-15t-38 15l-76 76q-16 16-16 38t16 38l164 164-164 164q-16 16-16 38t16 38l76 76q16 16 38 16t38-16l164-164 164 164q16 16 38 16t38-16l76-76q15-15 15-38t-15-38l-164-164 164-164q15-15 15-38z" horiz-adv-x="785.7" />

<glyph glyph-name="zoom-in" unicode="&#xe817;" d="M571 404v-36q0-7-5-13t-12-5h-125v-125q0-7-6-13t-12-5h-36q-7 0-13 5t-5 13v125h-125q-7 0-12 5t-6 13v36q0 7 6 12t12 5h125v125q0 8 5 13t13 5h36q7 0 12-5t6-13v-125h125q7 0 12-5t5-12z m72-18q0 103-74 176t-176 74-177-74-73-176 73-177 177-73 176 73 74 177z m286-465q0-29-21-50t-51-21q-30 0-50 21l-191 191q-100-69-223-69-80 0-153 31t-125 84-84 125-31 153 31 152 84 126 125 84 153 31 152-31 126-84 84-126 31-152q0-123-69-223l191-191q21-21 21-51z" horiz-adv-x="928.6" />

<glyph glyph-name="filter" unicode="&#xe818;" d="M783 685q9-23-8-39l-275-275v-414q0-23-22-33-7-3-14-3-15 0-25 11l-143 143q-10 11-10 25v271l-275 275q-18 16-8 39 9 22 33 22h714q23 0 33-22z" horiz-adv-x="785.7" />

<glyph glyph-name="down-open-1" unicode="&#xe819;" d="M939 399l-414-413q-10-11-25-11t-25 11l-414 413q-11 11-11 26t11 25l92 92q11 11 26 11t25-11l296-296 296 296q11 11 25 11t26-11l92-92q11-11 11-25t-11-26z" horiz-adv-x="1000" />

<glyph glyph-name="left-open-1" unicode="&#xe81a;" d="M653 682l-296-296 296-297q11-10 11-25t-11-25l-92-93q-11-10-25-10t-25 10l-414 415q-11 10-11 25t11 25l414 414q10 10 25 10t25-10l92-93q11-10 11-25t-11-25z" horiz-adv-x="714.3" />

<glyph glyph-name="right-open-1" unicode="&#xe81b;" d="M618 361l-414-415q-11-10-25-10t-26 10l-92 93q-11 11-11 25t11 25l296 297-296 296q-11 11-11 25t11 25l92 93q11 10 26 10t25-10l414-414q10-11 10-25t-10-25z" horiz-adv-x="714.3" />

<glyph glyph-name="up-open-1" unicode="&#xe81c;" d="M939 107l-92-92q-11-10-26-10t-25 10l-296 297-296-297q-11-10-25-10t-26 10l-92 92q-11 11-11 26t11 25l414 414q11 10 25 10t25-10l414-414q11-11 11-25t-11-26z" horiz-adv-x="1000" />
</font>
</defs>
</svg>